@startuml

object User {
  Number id
  String name
  Collection<Post> posts
}

object Post {
    Number id
    User author
    String title
    Text text
    Boolean private
    DateTime created
    DateTime modified
    DateTime publishFrom
    DateTime publishTo
    Collection<Comment> comments
    Collection<File> files
    Collection<Tag> tags
}

object Comment {
    Number id
    User author
    Post post
    Comment parent
    Text text
    DateTime created
    DateTime modified
    Collection<File> files
    Boolean spam
}

object File {
    Number id
    String name
    Post post
    Comment comment
    DateTime created
    String internetMediaType
    Blob data
}

object Image {
    Integer dimensionX
    Integer dimensionY
    Blob preview
}

object Tag {
    Number id
    String title
    Collection<Post> posts
}


Post "0..N" --* "1" User
Comment "0..N" --* "1" User
Post "1" --* "0..N" Comment
Comment "1" --* "0..N" Comment
Post "1" --* "0..N" File
Post "0..N" --* "0..N" Tag
Comment "1" --* "0..N" File

File <|-- Image

@enduml
